<?xml version="1.0" encoding="UTF-8"?>
<svg version="1.1" viewBox="0 0 104 31" xmlns="http://www.w3.org/2000/svg" xmlns:xlink="http://www.w3.org/1999/xlink">
 <defs>
  <linearGradient id="a">
   <stop stop-color="#1B37EC" offset="0"/>
   <stop stop-color="#5267F0" offset="1"/>
  </linearGradient>
  <linearGradient id="d" x1="31.474" x2="31.474" y1="24.821" y2="26.773" gradientUnits="userSpaceOnUse" xlink:href="#a"/>
  <linearGradient id="c" x1="31.474" x2="31.474" y1="24.821" y2="26.773" gradientTransform="matrix(.6816 0 0 1.0248 72.391 -.91809)" gradientUnits="userSpaceOnUse" xlink:href="#a"/>
  <linearGradient id="b" x1="56.295" x2="56.295" y1="24.622" y2="26.574" gradientUnits="userSpaceOnUse" xlink:href="#a"/>
  <linearGradient id="e" x1="49.067" x2="48.956" y1="19.719" y2="9.5227" gradientTransform="matrix(.97968 0 0 1.0207 -.25579 -.25579)" gradientUnits="userSpaceOnUse">
   <stop stop-color="#ABB5F8" offset="0"/>
   <stop stop-color="#E8EBFD" offset="1"/>
  </linearGradient>
  <filter id="f" x="-.010676" y="-.045304" width="1.0214" height="1.0906" color-interpolation-filters="sRGB">
   <feGaussianBlur stdDeviation="0.45293203"/>
  </filter>
 </defs>
 <g>
  <path transform="translate(-2.5759 -27.848)" d="m13.609 32.203v6.8633h-0.05078c-0.40533-0.66867-0.96254-1.1715-1.6719-1.5059-0.69244-0.35193-1.4282-0.52734-2.2051-0.52734-0.96267 0-1.807 0.2027-2.5332 0.60742-0.72622 0.38713-1.3344 0.90556-1.8242 1.5566-0.47289 0.65108-0.83456 1.4092-1.0879 2.2715-0.23644 0.84464-0.35547 1.7236-0.35547 2.6387 0 0.95022 0.11902 1.8643 0.35547 2.7441 0.25333 0.87983 0.615 1.6633 1.0879 2.3496 0.48978 0.66867 1.1065 1.2066 1.8496 1.6113 0.74311 0.38713 1.6044 0.58008 2.584 0.58008 0.86133 0 1.6311-0.15787 2.3066-0.47461 0.69244-0.33434 1.2497-0.87227 1.6719-1.6113h0.05078v1.7422h3.4199v-18.846zm12.875 4.8301c-1.0302 0-1.9596 0.17541-2.7871 0.52734-0.82756 0.33434-1.5358 0.81965-2.127 1.4531-0.59111 0.61588-1.0483 1.3721-1.3691 2.2695-0.32089 0.87983-0.48047 1.866-0.48047 2.957s0.15958 2.0752 0.48047 2.9551c0.32089 0.87983 0.77803 1.6361 1.3691 2.2695 0.59111 0.61588 1.2994 1.0914 2.127 1.4258 0.82756 0.33434 1.7569 0.50195 2.7871 0.50195 1.0302 0 1.9596-0.16762 2.7871-0.50195 0.84444-0.33434 1.5612-0.8099 2.1523-1.4258 0.59111-0.63348 1.0483-1.3897 1.3691-2.2695 0.32089-0.87983 0.48047-1.8641 0.48047-2.9551s-0.15958-2.0772-0.48047-2.957c-0.32089-0.89743-0.77803-1.6536-1.3691-2.2695-0.59111-0.63348-1.3079-1.1188-2.1523-1.4531-0.82756-0.35193-1.7569-0.52734-2.7871-0.52734zm41.715 0c-0.912 0-1.7223 0.18516-2.4316 0.55469-0.69244 0.36953-1.2752 0.87043-1.748 1.5039-0.47289 0.61588-0.83651 1.337-1.0898 2.1641-0.23645 0.80944-0.35352 1.6553-0.35352 2.5352 0 0.93262 0.10007 1.8214 0.30273 2.666 0.21956 0.82704 0.55767 1.556 1.0137 2.1895 0.456 0.61588 1.0387 1.109 1.748 1.4785 0.70933 0.35193 1.5536 0.5293 2.5332 0.5293 0.79378 0 1.5446-0.16762 2.2539-0.50195 0.72622-0.35193 1.2834-0.88986 1.6719-1.6113h0.05078v1.7949c0.01689 0.96782-0.21071 1.7689-0.68359 2.4023-0.456 0.63348-1.1898 0.95117-2.2031 0.95117-0.64178 0-1.2075-0.14228-1.6973-0.42383-0.48978-0.26395-0.81939-0.74731-0.98828-1.4512h-3.5723c0.05067 0.77425 0.25276 1.435 0.60742 1.9805 0.37156 0.56309 0.8287 1.0192 1.3691 1.3711 0.55733 0.35193 1.1656 0.60726 1.8242 0.76562 0.67556 0.17597 1.3328 0.26562 1.9746 0.26562 1.5031 0 2.7025-0.21245 3.5977-0.63477 0.89511-0.42232 1.5798-0.94076 2.0527-1.5566 0.47289-0.59829 0.777-1.2493 0.91211-1.9531 0.152-0.70386 0.22656-1.3295 0.22656-1.875v-12.775h-3.4199v1.8223h-0.05078c-0.43911-0.79185-0.98782-1.3551-1.6465-1.6895-0.64178-0.33434-1.3926-0.50195-2.2539-0.50195zm16.523 0c-0.99644 0-1.9088 0.18516-2.7363 0.55469-0.81067 0.36953-1.5124 0.88018-2.1035 1.5312-0.59111 0.63348-1.0463 1.3897-1.3672 2.2695s-0.48047 1.831-0.48047 2.8516c0 1.0558 0.15108 2.0225 0.45508 2.9023 0.32089 0.87983 0.76758 1.6361 1.3418 2.2695 0.57422 0.63348 1.276 1.1266 2.1035 1.4785 0.82756 0.33434 1.7569 0.50195 2.7871 0.50195 1.4862 0 2.7517-0.35277 3.7988-1.0566 1.0471-0.70387 1.8254-1.8733 2.332-3.5098h-3.168c-0.11822 0.42232-0.43934 0.82772-0.96289 1.2148-0.52355 0.36953-1.1468 0.55274-1.873 0.55273-1.0133 0-1.7916-0.27286-2.332-0.81836-0.54044-0.5455-0.83605-1.4245-0.88672-2.6387h9.4492c0.06756-1.0558-0.01551-2.0673-0.25195-3.0352-0.23644-0.96782-0.62557-1.8293-1.166-2.5859-0.52356-0.75666-1.1998-1.355-2.0273-1.7949-0.82756-0.45751-1.7974-0.6875-2.9121-0.6875zm16.189 0c-0.76 0-1.5023 0.18516-2.2285 0.55469-0.72622 0.35193-1.3174 0.92299-1.7734 1.7148h-0.07617v-1.9004h-3.4199v13.646h3.5977v-7.1523c0-1.3901 0.21909-2.3841 0.6582-2.9824 0.43911-0.61588 1.1494-0.92383 2.1289-0.92383 0.86133 0 1.4611 0.28066 1.7988 0.84375 0.33777 0.5455 0.50586 1.3816 0.50586 2.5078v7.707h3.5976v-8.3926c0-0.84464-0.0765-1.6106-0.22851-2.2969-0.13511-0.70387-0.37971-1.2925-0.73438-1.7676-0.35466-0.49271-0.84386-0.87277-1.4688-1.1367-0.608-0.28155-1.3948-0.42188-2.3574-0.42188zm-66.063 0.36914 4.3066 6.4668-4.7129 7.1797h4.0293l2.7363-4.3027 2.7344 4.3027h4.1055l-4.8398-7.2578 4.3066-6.3887h-3.9766l-2.2793 3.5645-2.3066-3.5645zm13.275 0 4.584 12.803c0.10133 0.26395 0.15234 0.54461 0.15234 0.84375 0 0.40472-0.11707 0.77504-0.35352 1.1094-0.21956 0.33434-0.56617 0.52729-1.0391 0.58008-0.35467 0.0176-0.70979 0.0098-1.0645-0.02539-0.35467-0.03519-0.70128-0.07028-1.0391-0.10547v3.0879c0.37156 0.03519 0.73518 0.06051 1.0898 0.07813 0.37156 0.03519 0.74368 0.05273 1.1152 0.05273 1.2329 0 2.1943-0.23778 2.8867-0.71289 0.69244-0.47511 1.2326-1.2664 1.6211-2.375l5.4727-15.336h-3.7246l-2.8613 9.3438h-0.05078l-2.9648-9.3438zm-37.48 2.4551c0.59111 0 1.0823 0.12279 1.4707 0.36914 0.38844 0.24635 0.6991 0.57184 0.93555 0.97656 0.25333 0.38713 0.43187 0.84515 0.5332 1.373 0.10133 0.5103 0.15234 1.0482 0.15234 1.6113 0 0.56309-0.05101 1.1069-0.15234 1.6348-0.10133 0.5279-0.27137 1.0035-0.50781 1.4258-0.23644 0.40472-0.5556 0.73021-0.96094 0.97656-0.38844 0.24635-0.87959 0.36914-1.4707 0.36914-0.55733 0-1.038-0.12279-1.4434-0.36914-0.38844-0.26395-0.71806-0.59723-0.98828-1.002-0.25333-0.42232-0.43842-0.89788-0.55664-1.4258s-0.17773-1.0561-0.17773-1.584c-1e-7 -0.56309 0.05101-1.0991 0.15234-1.6094 0.11822-0.5279 0.29481-0.99567 0.53125-1.4004 0.25333-0.40472 0.58295-0.73021 0.98828-0.97656 0.40533-0.24635 0.90303-0.36914 1.4941-0.36914zm15.84 0c0.608 0 1.1142 0.13253 1.5195 0.39648 0.42222 0.24635 0.75184 0.57184 0.98828 0.97656 0.25333 0.40472 0.42992 0.87054 0.53125 1.3984 0.10133 0.5279 0.15234 1.0658 0.15234 1.6113 0 0.5455-0.05101 1.0815-0.15234 1.6094-0.10134 0.5103-0.27792 0.97612-0.53125 1.3984-0.23644 0.40472-0.56606 0.73021-0.98828 0.97656-0.40533 0.24635-0.91153 0.36914-1.5195 0.36914-0.608 0-1.1142-0.12279-1.5195-0.36914s-0.73495-0.57184-0.98828-0.97656c-0.23644-0.42232-0.40648-0.88814-0.50781-1.3984-0.10133-0.5279-0.15234-1.0639-0.15234-1.6094 0-0.5455 0.05101-1.0834 0.15234-1.6113 0.10133-0.5279 0.27137-0.99371 0.50781-1.3984 0.25333-0.40472 0.58295-0.73021 0.98828-0.97656 0.40533-0.26395 0.91153-0.39648 1.5195-0.39648zm42.602 0c0.59111 0 1.0803 0.11499 1.4688 0.34375 0.38844 0.22876 0.70105 0.5367 0.9375 0.92383 0.23644 0.38713 0.40648 0.8354 0.50781 1.3457 0.10133 0.49271 0.15039 1.0209 0.15039 1.584 0 0.4927-0.06606 0.96827-0.20117 1.4258-0.11822 0.43992-0.30526 0.83557-0.55859 1.1875-0.25333 0.35193-0.57445 0.63259-0.96289 0.84375-0.38844 0.21116-0.83513 0.31836-1.3418 0.31836-0.55733 0-1.021-0.12474-1.3926-0.37109-0.37156-0.24635-0.67566-0.56209-0.91211-0.94922-0.21956-0.38713-0.38109-0.81786-0.48242-1.293-0.08444-0.49271-0.12695-0.98581-0.12695-1.4785 0-0.5103 0.05101-0.99366 0.15234-1.4512 0.11822-0.47511 0.29676-0.89025 0.5332-1.2422 0.25333-0.36953 0.55744-0.65993 0.91211-0.87109 0.37156-0.21116 0.80974-0.31641 1.3164-0.31641zm15.535 0c0.87822 0 1.529 0.24753 1.9512 0.74023 0.43911 0.49271 0.74322 1.2138 0.91211 2.1641h-5.8535c0.01689-0.26395 0.0679-0.5641 0.15234-0.89844 0.10133-0.33434 0.26287-0.65008 0.48242-0.94922 0.23644-0.29914 0.54055-0.54667 0.91211-0.74023 0.38845-0.21116 0.86914-0.31641 1.4434-0.31641z" filter="url(#f)" opacity=".3" stroke="#969696" xlink:href="#path141"/>
  <path d="m0.97202 24.161 43.605-0.0019 0.0508 3.3061-43.6 0.04174z" fill="url(#d)" stroke="#000" stroke-width=".5"/>
  <path d="m10.283 3.5547v6.8633h-0.05078c-0.40533-0.66867-0.96254-1.1715-1.6719-1.5059-0.69244-0.35193-1.4282-0.52734-2.2051-0.52734-0.96267 0-1.807 0.2027-2.5332 0.60742-0.72622 0.38713-1.3344 0.90556-1.8242 1.5566-0.47289 0.65108-0.83456 1.4092-1.0879 2.2715-0.23644 0.84464-0.35547 1.7236-0.35547 2.6387 0 0.95022 0.11902 1.8643 0.35547 2.7441 0.25333 0.87983 0.615 1.6633 1.0879 2.3496 0.48978 0.66867 1.1065 1.2066 1.8496 1.6113 0.74311 0.38713 1.6044 0.58008 2.584 0.58008 0.86133 0 1.6311-0.15787 2.3066-0.47461 0.69244-0.33434 1.2497-0.87227 1.6719-1.6113h0.05078v1.7422h3.4199v-18.846zm12.875 4.8301c-1.0302 0-1.9596 0.17541-2.7871 0.52734-0.82756 0.33434-1.5358 0.81965-2.127 1.4531-0.59111 0.61588-1.0483 1.3721-1.3691 2.2695-0.32089 0.87983-0.48047 1.866-0.48047 2.957s0.15958 2.0752 0.48047 2.9551c0.32089 0.87983 0.77803 1.6361 1.3691 2.2695 0.59111 0.61588 1.2994 1.0914 2.127 1.4258 0.82756 0.33434 1.7569 0.50195 2.7871 0.50195 1.0302 0 1.9596-0.16762 2.7871-0.50195 0.84444-0.33434 1.5612-0.8099 2.1523-1.4258 0.59111-0.63348 1.0483-1.3897 1.3691-2.2695 0.32089-0.87983 0.48047-1.8641 0.48047-2.9551s-0.15958-2.0772-0.48047-2.957c-0.32089-0.89743-0.77803-1.6536-1.3691-2.2695-0.59111-0.63348-1.3079-1.1188-2.1523-1.4531-0.82756-0.35193-1.7569-0.52734-2.7871-0.52734zm41.715 0c-0.912 0-1.7223 0.18516-2.4316 0.55469-0.69244 0.36953-1.2752 0.87043-1.748 1.5039-0.47289 0.61588-0.83651 1.337-1.0898 2.1641-0.23644 0.80944-0.35352 1.6553-0.35352 2.5352 0 0.93262 0.10007 1.8214 0.30273 2.666 0.21956 0.82704 0.55767 1.556 1.0137 2.1895 0.456 0.61588 1.0387 1.109 1.748 1.4785 0.70933 0.35193 1.5536 0.5293 2.5332 0.5293 0.79378 0 1.5446-0.16762 2.2539-0.50195 0.72622-0.35193 1.2834-0.88986 1.6719-1.6113h0.05078v1.7949c0.01689 0.96782-0.21071 1.7689-0.68359 2.4023-0.456 0.63348-1.1898 0.95117-2.2031 0.95117-0.64178 0-1.2075-0.14228-1.6973-0.42383-0.48978-0.26395-0.81939-0.74731-0.98828-1.4512h-3.5723c0.05067 0.77425 0.25276 1.435 0.60742 1.9805 0.37156 0.56309 0.8287 1.0192 1.3691 1.3711 0.55733 0.35193 1.1656 0.60726 1.8242 0.76562 0.67556 0.17597 1.3328 0.26562 1.9746 0.26562 1.5031 0 2.7025-0.21245 3.5977-0.63477 0.89511-0.42232 1.5798-0.94076 2.0527-1.5566 0.47289-0.59829 0.777-1.2493 0.91211-1.9531 0.152-0.70386 0.22656-1.3295 0.22656-1.875v-12.775h-3.4199v1.8223h-0.05078c-0.43911-0.79185-0.98782-1.3551-1.6465-1.6895-0.64178-0.33434-1.3926-0.50195-2.2539-0.50195zm16.523 0c-0.99644 0-1.9088 0.18516-2.7363 0.55469-0.81067 0.36953-1.5124 0.88017-2.1035 1.5312-0.59111 0.63348-1.0463 1.3897-1.3672 2.2695s-0.48047 1.831-0.48047 2.8516c0 1.0558 0.15108 2.0225 0.45508 2.9023 0.32089 0.87983 0.76758 1.6361 1.3418 2.2695 0.57422 0.63348 1.276 1.1266 2.1035 1.4785 0.82756 0.33434 1.7569 0.50195 2.7871 0.50195 1.4862 0 2.7517-0.35278 3.7988-1.0566 1.0471-0.70386 1.8254-1.8733 2.332-3.5098h-3.168c-0.11822 0.42232-0.43934 0.82772-0.96289 1.2148-0.52355 0.36953-1.1468 0.55274-1.873 0.55273-1.0133 0-1.7916-0.27286-2.332-0.81836-0.54044-0.5455-0.83605-1.4245-0.88672-2.6387h9.4492c0.06756-1.0558-0.01551-2.0673-0.25195-3.0352-0.23644-0.96782-0.62557-1.8293-1.166-2.5859-0.52356-0.75666-1.1998-1.355-2.0273-1.7949-0.82756-0.45751-1.7974-0.6875-2.9121-0.6875zm16.189 0c-0.76 0-1.5023 0.18516-2.2285 0.55469-0.72622 0.35193-1.3174 0.923-1.7734 1.7148h-0.07617v-1.9004h-3.4199v13.646h3.5977v-7.1523c0-1.3901 0.21909-2.3841 0.6582-2.9824 0.43911-0.61588 1.1494-0.92383 2.1289-0.92383 0.86133 0 1.461 0.28066 1.7988 0.84375 0.33778 0.5455 0.50586 1.3816 0.50586 2.5078v7.707h3.5977v-8.3926c0-0.84464-0.0765-1.6106-0.22852-2.2969-0.13511-0.70387-0.3797-1.2925-0.73437-1.7676-0.35466-0.49271-0.84386-0.87277-1.4688-1.1367-0.608-0.28155-1.3948-0.42188-2.3574-0.42188zm-66.062 0.36914 4.3066 6.4668-4.7129 7.1797h4.0293l2.7363-4.3027 2.7344 4.3027h4.1055l-4.8398-7.2578 4.3066-6.3887h-3.9766l-2.2793 3.5645-2.3066-3.5645zm13.275 0 4.584 12.803c0.10133 0.26395 0.15234 0.54461 0.15234 0.84375 0 0.40472-0.11707 0.77504-0.35352 1.1094-0.21956 0.33434-0.56617 0.52729-1.0391 0.58008-0.35467 0.0176-0.70979 0.0098-1.0645-0.02539-0.35467-0.03519-0.70128-0.07027-1.0391-0.10547v3.0879c0.37156 0.03519 0.73518 0.06052 1.0898 0.07813 0.37156 0.03519 0.74368 0.05273 1.1152 0.05273 1.2329 0 2.1943-0.23778 2.8867-0.71289 0.69244-0.47511 1.2326-1.2664 1.6211-2.375l5.4727-15.336h-3.7246l-2.8613 9.3437h-0.05078l-2.9648-9.3437zm-37.48 2.4551c0.59111 0 1.0823 0.12279 1.4707 0.36914s0.6991 0.57184 0.93555 0.97656c0.25333 0.38713 0.43187 0.84515 0.5332 1.373 0.10133 0.5103 0.15234 1.0482 0.15234 1.6113 0 0.56309-0.05101 1.1069-0.15234 1.6348-0.10133 0.5279-0.27137 1.0035-0.50781 1.4258-0.23644 0.40472-0.5556 0.73021-0.96094 0.97656-0.38844 0.24635-0.87959 0.36914-1.4707 0.36914-0.55733 0-1.038-0.12279-1.4434-0.36914-0.38844-0.26395-0.71806-0.59723-0.98828-1.002-0.25333-0.42232-0.43842-0.89788-0.55664-1.4258s-0.17773-1.0561-0.17773-1.584c-1e-7 -0.56309 0.05101-1.0991 0.15234-1.6094 0.11822-0.5279 0.29481-0.99567 0.53125-1.4004 0.25333-0.40472 0.58295-0.73021 0.98828-0.97656 0.40533-0.24635 0.90303-0.36914 1.4941-0.36914zm15.84 0c0.608 0 1.1142 0.13254 1.5195 0.39648 0.42222 0.24635 0.75184 0.57184 0.98828 0.97656 0.25333 0.40472 0.42992 0.87054 0.53125 1.3984 0.10133 0.5279 0.15234 1.0658 0.15234 1.6113 0 0.5455-0.05101 1.0815-0.15234 1.6094-0.10133 0.5103-0.27792 0.97612-0.53125 1.3984-0.23644 0.40472-0.56606 0.73021-0.98828 0.97656-0.40533 0.24635-0.91153 0.36914-1.5195 0.36914-0.608 0-1.1142-0.12279-1.5195-0.36914s-0.73495-0.57184-0.98828-0.97656c-0.23644-0.42232-0.40648-0.88813-0.50781-1.3984-0.10133-0.5279-0.15234-1.0639-0.15234-1.6094 0-0.5455 0.05101-1.0834 0.15234-1.6113 0.10133-0.5279 0.27137-0.99371 0.50781-1.3984 0.25333-0.40472 0.58295-0.73021 0.98828-0.97656 0.40533-0.26395 0.91153-0.39648 1.5195-0.39648zm42.602 0c0.59111 0 1.0803 0.11499 1.4688 0.34375 0.38844 0.22876 0.70106 0.5367 0.9375 0.92383 0.23644 0.38713 0.40648 0.8354 0.50781 1.3457 0.10133 0.49271 0.15039 1.0209 0.15039 1.584 0 0.49271-0.06606 0.96827-0.20117 1.4258-0.11822 0.43992-0.30526 0.83557-0.55859 1.1875-0.25333 0.35193-0.57445 0.63259-0.96289 0.84375-0.38844 0.21116-0.83513 0.31836-1.3418 0.31836-0.55733 0-1.021-0.12474-1.3926-0.37109-0.37156-0.24635-0.67566-0.56209-0.91211-0.94922-0.21956-0.38713-0.38109-0.81786-0.48242-1.293-0.08444-0.49271-0.12695-0.98581-0.12695-1.4785 0-0.5103 0.05101-0.99366 0.15234-1.4512 0.11822-0.47511 0.29676-0.89026 0.5332-1.2422 0.25333-0.36953 0.55744-0.65993 0.91211-0.87109 0.37156-0.21116 0.80974-0.31641 1.3164-0.31641zm15.535 0c0.87822 0 1.529 0.24753 1.9512 0.74024 0.43911 0.49271 0.74322 1.2138 0.91211 2.1641h-5.8535c0.01689-0.26395 0.0679-0.5641 0.15234-0.89844 0.10133-0.33434 0.26287-0.65008 0.48242-0.94922 0.23644-0.29914 0.54055-0.54667 0.91211-0.74023 0.38845-0.21116 0.86914-0.31641 1.4434-0.31641z" fill="url(#e)" stroke="#112CD7" stroke-width=".7"/>
  <path d="m52.988 27.291c0.99602-1.0359 1.3944-1.8725 1.7928-3.1076l3.8247-0.03984c0.3113 1.6096 0.82413 2.5137 1.6335 3.1474z" fill="url(#b)" stroke="#000" stroke-width=".5"/>
  <path d="m73.89 24.04 28.885-0.2011-0.12476 3.3879-31.033 0.16229c1.2621-1.0234 1.9665-2.2859 2.2724-3.3491z" fill="url(#c)" stroke="#000" stroke-width=".41788"/>
 </g>
</svg>
